<?xml version="1.0" encoding="UTF-8" standalone="no"?>
<!-- Created with Inkscape (http://www.inkscape.org/) -->

<svg
   width="192.62572mm"
   height="90.749672mm"
   viewBox="0 0 192.62572 90.749672"
   version="1.1"
   id="svg2020"
   xml:space="preserve"
   inkscape:version="1.2.1 (9c6d41e4, 2022-07-14)"
   sodipodi:docname="7.svg"
   xmlns:inkscape="http://www.inkscape.org/namespaces/inkscape"
   xmlns:sodipodi="http://sodipodi.sourceforge.net/DTD/sodipodi-0.dtd"
   xmlns:xlink="http://www.w3.org/1999/xlink"
   xmlns="http://www.w3.org/2000/svg"
   xmlns:svg="http://www.w3.org/2000/svg"><sodipodi:namedview
     id="namedview2022"
     pagecolor="#ffffff"
     bordercolor="#000000"
     borderopacity="0.25"
     inkscape:showpageshadow="2"
     inkscape:pageopacity="0.0"
     inkscape:pagecheckerboard="0"
     inkscape:deskcolor="#d1d1d1"
     inkscape:document-units="mm"
     showgrid="false"
     inkscape:zoom="0.76095324"
     inkscape:cx="355.47519"
     inkscape:cy="530.91304"
     inkscape:window-width="1390"
     inkscape:window-height="754"
     inkscape:window-x="0"
     inkscape:window-y="25"
     inkscape:window-maximized="0"
     inkscape:current-layer="layer1" /><defs
     id="defs2017"><rect
       x="61.794338"
       y="426.98492"
       width="365.65521"
       height="143.56729"
       id="rect4125" /><linearGradient
       id="linearGradient3310"><stop
         style="stop-color:#804a00;stop-opacity:1;"
         offset="0"
         id="stop3300" /><stop
         style="stop-color:#7d4800;stop-opacity:1;"
         offset="0.01689827"
         id="stop3302" /><stop
         style="stop-color:#b99a6b;stop-opacity:1;"
         offset="0.31114343"
         id="stop3304" /><stop
         style="stop-color:#9d7b3d;stop-opacity:1;"
         offset="0.89624155"
         id="stop3306" /><stop
         style="stop-color:#8f621b;stop-opacity:1;"
         offset="1"
         id="stop3308" /></linearGradient><linearGradient
       id="linearGradient3512-1"><stop
         style="stop-color:#a57c01;stop-opacity:1;"
         offset="0"
         id="stop26111" /><stop
         style="stop-color:#b79001;stop-opacity:1;"
         offset="0.26634321"
         id="stop26858" /><stop
         style="stop-color:#ffdf01;stop-opacity:1;"
         offset="0.3754116"
         id="stop26860" /><stop
         style="stop-color:#edcb01;stop-opacity:1;"
         offset="0.43653032"
         id="stop26862" /><stop
         style="stop-color:#dbb701;stop-opacity:1;"
         offset="1"
         id="stop26113" /></linearGradient><linearGradient
       id="linearGradient12861"
       inkscape:swatch="solid"><stop
         style="stop-color:#000000;stop-opacity:1;"
         offset="0"
         id="stop12859" /></linearGradient><filter
       style="color-interpolation-filters:sRGB"
       inkscape:label="Drop Shadow"
       id="filter10357"
       x="-0.038244426"
       y="-0.036442485"
       width="1.0789502"
       height="1.0865155"><feFlood
         flood-opacity="0.498039"
         flood-color="rgb(0,0,0)"
         result="flood"
         id="feFlood10347" /><feComposite
         in="flood"
         in2="SourceGraphic"
         operator="in"
         result="composite1"
         id="feComposite10349" /><feGaussianBlur
         in="composite1"
         stdDeviation="0.505939"
         result="blur"
         id="feGaussianBlur10351" /><feOffset
         dx="0.0781478"
         dy="0.45417"
         result="offset"
         id="feOffset10353" /><feComposite
         in="SourceGraphic"
         in2="offset"
         operator="over"
         result="composite2"
         id="feComposite10355" /></filter><filter
       style="color-interpolation-filters:sRGB"
       inkscape:label="Drop Shadow"
       id="filter10369"
       x="-0.036176354"
       y="-0.077379256"
       width="1.074681"
       height="1.1837009"><feFlood
         flood-opacity="0.498039"
         flood-color="rgb(0,0,0)"
         result="flood"
         id="feFlood10359" /><feComposite
         in="flood"
         in2="SourceGraphic"
         operator="in"
         result="composite1"
         id="feComposite10361" /><feGaussianBlur
         in="composite1"
         stdDeviation="0.505939"
         result="blur"
         id="feGaussianBlur10363" /><feOffset
         dx="0.0781478"
         dy="0.45417"
         result="offset"
         id="feOffset10365" /><feComposite
         in="SourceGraphic"
         in2="offset"
         operator="over"
         result="composite2"
         id="feComposite10367" /></filter><filter
       style="color-interpolation-filters:sRGB"
       inkscape:label="Drop Shadow"
       id="filter10417"
       x="-0.075036019"
       y="-0.036674883"
       width="1.1549013"
       height="1.0870674"><feFlood
         flood-opacity="0.498039"
         flood-color="rgb(0,0,0)"
         result="flood"
         id="feFlood10407" /><feComposite
         in="flood"
         in2="SourceGraphic"
         operator="in"
         result="composite1"
         id="feComposite10409" /><feGaussianBlur
         in="composite1"
         stdDeviation="0.505939"
         result="blur"
         id="feGaussianBlur10411" /><feOffset
         dx="0.0781478"
         dy="0.45417"
         result="offset"
         id="feOffset10413" /><feComposite
         in="SourceGraphic"
         in2="offset"
         operator="over"
         result="composite2"
         id="feComposite10415" /></filter><linearGradient
       inkscape:collect="always"
       xlink:href="#linearGradient3310"
       id="linearGradient43501"
       x1="52.306999"
       y1="204.89343"
       x2="150.282"
       y2="135.83488"
       gradientUnits="userSpaceOnUse" /><linearGradient
       inkscape:collect="always"
       xlink:href="#linearGradient3310"
       id="linearGradient56855"
       x1="71.141144"
       y1="120.38123"
       x2="82.672256"
       y2="88.025139"
       gradientUnits="userSpaceOnUse" /><linearGradient
       inkscape:collect="always"
       xlink:href="#linearGradient3512-1"
       id="linearGradient7124"
       gradientUnits="userSpaceOnUse"
       x1="80.332314"
       y1="183.16171"
       x2="145.69745"
       y2="79.332451" /><filter
       style="color-interpolation-filters:sRGB"
       inkscape:label="Drop Shadow"
       id="filter7562"
       x="-0.060718458"
       y="-0.077114351"
       width="1.1229392"
       height="1.1653171"><feFlood
         flood-opacity="0.498039"
         flood-color="rgb(0,0,0)"
         result="flood"
         id="feFlood7552" /><feComposite
         in="flood"
         in2="SourceGraphic"
         operator="in"
         result="composite1"
         id="feComposite7554" /><feGaussianBlur
         in="composite1"
         stdDeviation="1"
         result="blur"
         id="feGaussianBlur7556" /><feOffset
         dx="0"
         dy="0"
         result="offset"
         id="feOffset7558" /><feComposite
         in="SourceGraphic"
         in2="offset"
         operator="over"
         result="composite2"
         id="feComposite7560" /></filter></defs><g
     inkscape:label="Layer 1"
     inkscape:groupmode="layer"
     id="layer1"
     transform="translate(-9.7355978,-83.621816)"><rect
       style="fill:#ffffff;fill-opacity:1;stroke:none;stroke-width:0.219565"
       id="rect7314-9"
       width="192.62572"
       height="90.749664"
       x="9.7355976"
       y="83.621819"
       inkscape:export-filename="7.svg"
       inkscape:export-xdpi="96"
       inkscape:export-ydpi="96" /><g
       id="g13969"
       transform="translate(-47.015548,101.16198)"><g
         id="g6929"
         style="fill:url(#linearGradient7124);fill-opacity:1;fill-rule:nonzero;stroke:none;stroke-opacity:1"><path
           style="fill:url(#linearGradient3817);fill-opacity:1;fill-rule:nonzero;stroke:none;stroke-width:0.264583px;stroke-linecap:butt;stroke-linejoin:miter;stroke-opacity:1;filter:url(#filter10357)"
           d="m 24.74925,108.42419 h 9.39163 v -8.38831 l 2.79346,-2.79346 h 0.57259 l 7.57147,11.26765 h 11.38656 v -0.78692 L 43.84523,89.998006 56.49907,75.190344 h -11.23 l -11.0765,13.072271 v -5.069023 l -8.67952,-7.713421 -0.75856,-0.01014 z"
           id="path2237"
           sodipodi:nodetypes="cccccccccccccccc"
           transform="matrix(2.9169983,0,0,2.9169983,51.490549,-130.25883)" /><path
           style="fill:url(#linearGradient3819);fill-opacity:1;fill-rule:nonzero;stroke:none;stroke-width:0.264583px;stroke-linecap:butt;stroke-linejoin:miter;stroke-opacity:1;filter:url(#filter10369)"
           d="m 4.4794888,82.046579 1.312273,1.312272 c 0,0 0.908113,0.0743 0.989938,0 C 6.8902888,83.260251 21.254683,70.55954 21.254683,70.55954 L 36.2044,83.542197 h 0.52039 L 38.04433,82.222659 21.701229,67.849961 h -0.936101 z"
           id="path2308"
           sodipodi:nodetypes="ccsccccccc"
           transform="matrix(2.9169983,0,0,2.9169983,51.490549,-130.25883)" /><path
           style="fill:url(#linearGradient3821);fill-opacity:1;fill-rule:nonzero;stroke:none;stroke-opacity:1;filter:url(#filter10417)"
           d="m 17.79337,75.401891 v 24.931559 h 6.66886 c 0,0 0.0208,8.17703 0,8.17703 H 8.2891978 V 83.312303 Z"
           id="path557"
           sodipodi:nodetypes="ccccccc"
           transform="matrix(2.9169983,0,0,2.9169983,51.490549,-130.25883)" /></g><g
         id="g16553"
         transform="translate(-12.169495,-115.08865)"><g
           id="g31350"
           style="fill:url(#linearGradient43501);fill-opacity:1;fill-rule:nonzero;stroke:url(#linearGradient56855);stroke-width:2;stroke-dasharray:none;stroke-opacity:1;filter:url(#filter7562)"
           inkscape:export-filename="platinum.svg"
           inkscape:export-xdpi="96"
           inkscape:export-ydpi="96"><path
             style="fill:#232b2d;fill-opacity:1;fill-rule:nonzero;stroke:none;filter:url(#filter10357)"
             d="m 24.74925,108.42419 h 9.39163 v -8.38831 l 2.79346,-2.79346 h 0.57259 l 7.57147,11.26765 h 11.38656 v -0.78692 L 43.84523,89.998006 56.49907,75.190344 h -11.23 l -11.0765,13.072271 v -5.069023 l -8.67952,-7.713421 -0.75856,-0.01014 z"
             id="path31344"
             sodipodi:nodetypes="cccccccccccccccc"
             transform="matrix(1.2343805,0,0,1.2343805,174.34768,33.863183)" /><path
             style="display:inline;fill:#ffffff;fill-opacity:1;fill-rule:nonzero;stroke:none;stroke-width:0.685636;stroke-linecap:butt;stroke-linejoin:miter;stroke-dasharray:none;stroke-opacity:1;filter:url(#filter10369)"
             d="m 4.4794888,82.046579 1.312273,1.312272 c 0,0 0.908113,0.0743 0.989938,0 C 6.8902888,83.260251 21.254683,70.55954 21.254683,70.55954 L 36.2044,83.542197 h 0.52039 L 38.04433,82.222659 21.701229,67.849961 h -0.936101 z"
             id="path31346"
             sodipodi:nodetypes="ccsccccccc"
             transform="matrix(1.2343805,0,0,1.2343805,174.34768,33.494391)" /><path
             style="fill:#232b2d;fill-opacity:1;fill-rule:nonzero;stroke:none;stroke-width:0.308604;stroke-dasharray:none;stroke-opacity:1;filter:url(#filter10417)"
             d="m 17.79337,75.401891 v 24.931559 h 6.66886 c 0,0 0.0208,8.17703 0,8.17703 H 8.2891978 V 83.312303 Z"
             id="path31348"
             sodipodi:nodetypes="ccccccc"
             transform="matrix(1.2343805,0,0,1.2343805,174.34768,33.863183)" /></g></g></g><g
       aria-label="Contact Us:  Phone: 07762 586033 Email: lk-cleaning@outlook.com Facebook: LK Cleaning Services Ltd"
       transform="matrix(0.42990876,0,0,0.42990876,-10.327673,-70.784006)"
       id="text4123"
       style="line-height:0;white-space:pre;shape-inside:url(#rect4125);display:inline;fill:#232b2d"><path
         d="m 82.349661,451.44988 q -0.837415,0.36542 -1.522573,0.68516 -0.669932,0.31974 -1.766185,0.66993 -0.92877,0.28929 -2.025023,0.48723 -1.081027,0.21316 -2.39044,0.21316 -2.466568,0 -4.491591,-0.68516 -2.009797,-0.70039 -3.501918,-2.17728 -1.461671,-1.44645 -2.28386,-3.6694 -0.82219,-2.23819 -0.82219,-5.19198 0,-2.80153 0.791738,-5.00926 0.791738,-2.20774 2.28386,-3.73031 1.446445,-1.4769 3.486693,-2.25341 2.055474,-0.77651 4.552494,-0.77651 1.827088,0 3.63895,0.44155 1.827088,0.44154 4.050045,1.55302 v 3.57805 h -0.228386 q -1.872765,-1.56825 -3.715079,-2.28386 -1.842313,-0.71561 -3.943465,-0.71561 -1.720507,0 -3.106049,0.56335 -1.370316,0.54813 -2.451343,1.72051 -1.050576,1.14193 -1.644379,2.89289 -0.578578,1.73573 -0.578578,4.01959 0,2.39044 0.639481,4.11095 0.654706,1.72051 1.67483,2.80153 1.065802,1.12671 2.481795,1.67483 1.431219,0.53291 3.014695,0.53291 2.17728,0 4.080496,-0.74607 1.903217,-0.74606 3.562822,-2.23818 h 0.21316 z"
         style="font-size:31.1823px"
         id="path11253" /><path
         d="m 100.87938,444.5983 q 0,4.15663 -2.131604,6.56229 -2.131603,2.40567 -5.70965,2.40567 -3.608498,0 -5.740101,-2.40567 -2.116377,-2.40566 -2.116377,-6.56229 0,-4.15662 2.116377,-6.56229 2.131603,-2.42089 5.740101,-2.42089 3.578047,0 5.70965,2.42089 2.131604,2.40567 2.131604,6.56229 z m -2.953794,0 q 0,-3.30398 -1.294187,-4.90268 -1.294187,-1.61393 -3.593273,-1.61393 -2.329537,0 -3.623724,1.61393 -1.278962,1.5987 -1.278962,4.90268 0,3.19741 1.294188,4.85701 1.294187,1.64438 3.608498,1.64438 2.28386,0 3.578047,-1.62915 1.309413,-1.64438 1.309413,-4.87224 z"
         style="font-size:31.1823px"
         id="path11255" /><path
         d="m 119.5309,453.09426 h -2.86244 v -9.68357 q 0,-1.17238 -0.13703,-2.1925 -0.13703,-1.03535 -0.50245,-1.61393 -0.38064,-0.63948 -1.09625,-0.94399 -0.71561,-0.31974 -1.85754,-0.31974 -1.17238,0 -2.45134,0.57857 -1.27897,0.57858 -2.45135,1.4769 v 12.69826 h -2.86243 v -17.00714 h 2.86243 v 1.88799 q 1.33987,-1.11148 2.77109,-1.73574 1.43122,-0.62425 2.93856,-0.62425 2.75586,0 4.20231,1.6596 1.44644,1.65961 1.44644,4.78088 z"
         style="font-size:31.1823px"
         id="path11257" /><path
         d="m 133.87354,452.942 q -0.80697,0.21316 -1.76619,0.3502 -0.94399,0.13703 -1.69005,0.13703 -2.6036,0 -3.95869,-1.40077 -1.35509,-1.40077 -1.35509,-4.49159 v -9.04409 h -1.93367 v -2.40566 h 1.93367 v -4.88746 h 2.86243 v 4.88746 h 5.90759 v 2.40566 h -5.90759 v 7.7499 q 0,1.33987 0.0609,2.10115 0.0609,0.74606 0.42632,1.40077 0.33496,0.60903 0.91354,0.89832 0.59381,0.27406 1.79664,0.27406 0.70038,0 1.46167,-0.19793 0.76129,-0.21316 1.09625,-0.3502 h 0.15226 z"
         style="font-size:31.1823px"
         id="path11259" /><path
         d="m 150.54572,453.09426 h -2.84721 v -1.81186 q -0.38065,0.25884 -1.03535,0.73083 -0.63948,0.45678 -1.24851,0.73084 -0.71561,0.35019 -1.64438,0.57858 -0.92877,0.24361 -2.17728,0.24361 -2.29909,0 -3.89779,-1.52257 -1.5987,-1.52258 -1.5987,-3.88257 0,-1.93366 0.82219,-3.12127 0.83741,-1.20283 2.37521,-1.88799 1.55303,-0.68516 3.73031,-0.92877 2.17728,-0.24361 4.6743,-0.36542 v -0.44155 q 0,-0.97444 -0.35019,-1.61392 -0.33497,-0.63948 -0.97445,-1.0049 -0.60903,-0.35019 -1.46167,-0.472 -0.85264,-0.12181 -1.78141,-0.12181 -1.12671,0 -2.51225,0.30452 -1.38554,0.28929 -2.86244,0.85264 h -0.15225 v -2.90811 q 0.83741,-0.22839 2.42089,-0.50245 1.58347,-0.27407 3.12127,-0.27407 1.79664,0 3.12128,0.30452 1.33986,0.28929 2.31431,1.0049 0.95922,0.70038 1.46167,1.81186 0.50245,1.11148 0.50245,2.75586 z m -2.84721,-4.18708 v -4.7352 q -1.30942,0.0761 -3.09083,0.22839 -1.76618,0.15225 -2.80153,0.44154 -1.23329,0.3502 -1.99457,1.09626 -0.76129,0.73083 -0.76129,2.02502 0,1.46167 0.88309,2.20773 0.8831,0.73084 2.69496,0.73084 1.50735,0 2.75586,-0.57858 1.24851,-0.59381 2.31431,-1.416 z"
         style="font-size:31.1823px"
         id="path11261" /><path
         d="m 168.63389,452.02846 q -1.43122,0.68516 -2.7254,1.0658 -1.27897,0.38064 -2.72541,0.38064 -1.84231,0 -3.38011,-0.5329 -1.5378,-0.54812 -2.63405,-1.64438 -1.11148,-1.09625 -1.72051,-2.77108 -0.60903,-1.67483 -0.60903,-3.91301 0,-4.17185 2.28386,-6.54707 2.29908,-2.37521 6.05984,-2.37521 1.46167,0 2.86244,0.41109 1.41599,0.4111 2.58837,1.0049 v 3.18218 h -0.15225 q -1.30942,-1.02012 -2.71019,-1.56825 -1.38554,-0.54813 -2.71018,-0.54813 -2.43611,0 -3.85211,1.64438 -1.40076,1.62916 -1.40076,4.79611 0,3.0756 1.37031,4.7352 1.38554,1.64438 3.88256,1.64438 0.86787,0 1.76619,-0.22839 0.89832,-0.22838 1.61393,-0.5938 0.62425,-0.31974 1.17238,-0.66993 0.54812,-0.36542 0.86787,-0.62426 h 0.15225 z"
         style="font-size:31.1823px"
         id="path11263" /><path
         d="m 181.13421,452.942 q -0.80696,0.21316 -1.76618,0.3502 -0.944,0.13703 -1.69006,0.13703 -2.6036,0 -3.95869,-1.40077 -1.35509,-1.40077 -1.35509,-4.49159 v -9.04409 h -1.93367 v -2.40566 h 1.93367 v -4.88746 h 2.86244 v 4.88746 h 5.90758 v 2.40566 h -5.90758 v 7.7499 q 0,1.33987 0.0609,2.10115 0.0609,0.74606 0.42632,1.40077 0.33497,0.60903 0.91355,0.89832 0.5938,0.27406 1.79663,0.27406 0.70039,0 1.46167,-0.19793 0.76129,-0.21316 1.09625,-0.3502 h 0.15226 z"
         style="font-size:31.1823px"
         id="path11265" /><path
         d="m 212.84941,443.98927 q 0,2.46657 -0.54812,4.30889 -0.5329,1.82708 -1.76619,3.04514 -1.17238,1.15716 -2.74063,1.69006 -1.56825,0.5329 -3.65417,0.5329 -2.13161,0 -3.71508,-0.56335 -1.58348,-0.56336 -2.66451,-1.65961 -1.23328,-1.24851 -1.78141,-3.01469 -0.5329,-1.76619 -0.5329,-4.33934 v -13.56613 h 3.0147 v 13.71839 q 0,1.84231 0.24361,2.90812 0.25884,1.0658 0.85264,1.93366 0.66993,0.98968 1.81186,1.49212 1.15716,0.50245 2.77109,0.50245 1.62915,0 2.77108,-0.48722 1.14193,-0.50245 1.82709,-1.50735 0.5938,-0.86786 0.83741,-1.97934 0.25884,-1.12671 0.25884,-2.78631 v -13.79452 h 3.01469 z"
         style="font-size:31.1823px"
         id="path11267" /><path
         d="m 230.5265,448.19158 q 0,2.32953 -1.93367,3.82165 -1.91844,1.49213 -5.25288,1.49213 -1.88799,0 -3.47147,-0.44155 -1.56825,-0.45677 -2.63405,-0.98967 v -3.21263 h 0.15226 q 1.35509,1.02012 3.01469,1.62915 1.65961,0.5938 3.18218,0.5938 1.88799,0 2.95379,-0.60903 1.06581,-0.60902 1.06581,-1.91844 0,-1.0049 -0.57858,-1.52257 -0.57858,-0.51768 -2.22296,-0.88309 -0.60903,-0.13703 -1.5987,-0.31974 -0.97445,-0.18271 -1.78141,-0.39587 -2.23818,-0.59381 -3.18218,-1.73574 -0.92877,-1.15715 -0.92877,-2.83198 0,-1.05058 0.42632,-1.97935 0.44155,-0.92877 1.32464,-1.6596 0.85264,-0.71561 2.16205,-1.12671 1.32464,-0.42632 2.9538,-0.42632 1.52257,0 3.07559,0.38065 1.56825,0.36541 2.6036,0.89831 v 3.06038 h -0.15225 q -1.09626,-0.80697 -2.66451,-1.35509 -1.56825,-0.56336 -3.07559,-0.56336 -1.56826,0 -2.64928,0.60903 -1.08103,0.59381 -1.08103,1.78141 0,1.05058 0.65471,1.58348 0.63948,0.5329 2.0707,0.86787 0.79174,0.18271 1.76618,0.36541 0.98967,0.18271 1.64438,0.33497 1.99457,0.45677 3.0756,1.56825 1.08103,1.12671 1.08103,2.98425 z"
         style="font-size:31.1823px"
         id="path11269" /><path
         d="m 240.7125,440.42645 h -3.63895 v -4.33933 h 3.63895 z m 0,12.66781 h -3.63895 v -4.33933 h 3.63895 z"
         style="font-size:31.1823px"
         id="path11271" /><path
         d="m 70.109375,476.16216 q 0,0.58594 -0.205078,1.14844 -0.205078,0.55664 -0.585938,0.9375 -0.521484,0.51562 -1.166015,0.7793 -0.638672,0.26367 -1.59375,0.26367 h -1.400391 v 2.84179 h -2.25 v -8.72461 h 3.703125 q 0.832031,0 1.400391,0.14649 0.574218,0.14062 1.013672,0.42773 0.527343,0.34571 0.802734,0.88477 0.28125,0.53906 0.28125,1.29492 z m -2.326172,0.0527 q 0,-0.36915 -0.199219,-0.63282 -0.199218,-0.26953 -0.46289,-0.375 -0.351563,-0.14062 -0.685547,-0.15234 -0.333985,-0.0176 -0.890625,-0.0176 h -0.386719 v 2.61328 h 0.644531 q 0.574219,0 0.94336,-0.0703 0.375,-0.0703 0.626953,-0.28125 0.216797,-0.1875 0.310547,-0.44531 0.09961,-0.26367 0.09961,-0.63867 z"
         style="font-weight:bold;line-height:1.1;-inkscape-font-specification:'sans-serif Bold'"
         id="path11273" /><path
         d="m 78.195312,482.13286 h -2.121093 v -3.26367 q 0,-0.39844 -0.04102,-0.79101 -0.04102,-0.39844 -0.140625,-0.58594 -0.117187,-0.2168 -0.345703,-0.31641 -0.222656,-0.0996 -0.626953,-0.0996 -0.28711,0 -0.585938,0.0937 -0.292968,0.0937 -0.638672,0.29883 v 4.66406 h -2.109375 v -9.11718 h 2.109375 v 3.26367 q 0.5625,-0.43945 1.078125,-0.67383 0.521485,-0.23437 1.154297,-0.23437 1.066407,0 1.664063,0.62109 0.603515,0.62109 0.603515,1.85742 z"
         style="font-weight:bold;line-height:1.1;-inkscape-font-specification:'sans-serif Bold'"
         id="path11275" /><path
         d="m 86.861328,478.84575 q 0,1.62305 -0.949219,2.56055 -0.943359,0.93164 -2.654297,0.93164 -1.710937,0 -2.660156,-0.93164 -0.943359,-0.9375 -0.943359,-2.56055 0,-1.63476 0.949219,-2.5664 0.955078,-0.93164 2.654296,-0.93164 1.722657,0 2.660157,0.9375 0.943359,0.9375 0.943359,2.56054 z m -2.595703,1.59961 q 0.205078,-0.25195 0.304687,-0.60351 0.105469,-0.35742 0.105469,-0.98438 0,-0.58007 -0.105469,-0.97265 -0.105468,-0.39258 -0.292968,-0.62696 -0.1875,-0.24023 -0.451172,-0.33984 -0.263672,-0.0996 -0.56836,-0.0996 -0.304687,0 -0.544921,0.082 -0.234375,0.082 -0.451172,0.32813 -0.19336,0.22851 -0.310547,0.62695 -0.111328,0.39844 -0.111328,1.00195 0,0.53907 0.09961,0.9375 0.09961,0.39258 0.292969,0.63282 0.1875,0.22851 0.445312,0.33398 0.263672,0.10547 0.597657,0.10547 0.287109,0 0.544921,-0.0937 0.263672,-0.0996 0.445313,-0.32813 z"
         style="font-weight:bold;line-height:1.1;-inkscape-font-specification:'sans-serif Bold'"
         id="path11277" /><path
         d="m 94.982422,482.13286 h -2.121094 v -3.26367 q 0,-0.39844 -0.04102,-0.79101 -0.04102,-0.39844 -0.140625,-0.58594 -0.117187,-0.2168 -0.345703,-0.31641 -0.222656,-0.0996 -0.626953,-0.0996 -0.287109,0 -0.585937,0.0937 -0.292969,0.0937 -0.638672,0.29883 v 4.66406 h -2.109375 v -6.58007 h 2.109375 v 0.72656 q 0.5625,-0.43945 1.078125,-0.67383 0.521484,-0.23437 1.154297,-0.23437 1.066406,0 1.664062,0.62109 0.603516,0.62109 0.603516,1.85742 z"
         style="font-weight:bold;line-height:1.1;-inkscape-font-specification:'sans-serif Bold'"
         id="path11279" /><path
         d="m 103.40234,479.23247 h -4.828121 q 0.04687,0.77344 0.585937,1.1836 0.544922,0.41015 1.599614,0.41015 0.66796,0 1.29492,-0.24023 0.62695,-0.24024 0.99023,-0.51563 h 0.23438 v 1.69336 q -0.71485,0.28711 -1.34766,0.41602 -0.63281,0.12891 -1.40039,0.12891 -1.980469,0 -3.035156,-0.89063 -1.054688,-0.89062 -1.054688,-2.53711 0,-1.62891 0.996094,-2.57812 1.001953,-0.95508 2.74219,-0.95508 1.60547,0 2.41406,0.81445 0.80859,0.80859 0.80859,2.33203 z m -2.09765,-1.23632 q -0.0176,-0.66211 -0.32813,-0.9961 -0.31054,-0.33398 -0.96679,-0.33398 -0.609379,0 -1.001958,0.3164 -0.392578,0.31641 -0.439453,1.01368 z"
         style="font-weight:bold;line-height:1.1;-inkscape-font-specification:'sans-serif Bold'"
         id="path11281" /><path
         d="m 107.4043,477.85552 h -2.19141 v -2.30273 h 2.19141 z m 0,4.27734 h -2.19141 v -2.30273 h 2.19141 z"
         style="font-weight:bold;line-height:1.1;-inkscape-font-specification:'sans-serif Bold'"
         id="path11283" /><path
         d="m 119.7793,477.76763 q 0,2.34961 -0.73828,3.45117 -0.73243,1.0957 -2.2793,1.0957 -1.57031,0 -2.29688,-1.11328 -0.7207,-1.11328 -0.7207,-3.42187 0,-2.32617 0.73242,-3.4336 0.73242,-1.11328 2.28516,-1.11328 1.57031,0 2.29101,1.13086 0.72657,1.125 0.72657,3.4043 z m -1.54102,2.66016 q 0.20508,-0.47461 0.27539,-1.11329 0.0762,-0.64453 0.0762,-1.54687 0,-0.89063 -0.0762,-1.54688 -0.0703,-0.65625 -0.28125,-1.11328 -0.20508,-0.45117 -0.5625,-0.67968 -0.35156,-0.22852 -0.9082,-0.22852 -0.55078,0 -0.91406,0.22852 -0.35743,0.22851 -0.56836,0.6914 -0.19922,0.4336 -0.27539,1.13086 -0.0703,0.69727 -0.0703,1.5293 0,0.91406 0.0645,1.5293 0.0644,0.61523 0.27539,1.10156 0.19336,0.45703 0.54492,0.69726 0.35742,0.24024 0.94336,0.24024 0.55078,0 0.91406,-0.22852 0.36328,-0.22851 0.5625,-0.6914 z"
         style="line-height:1.1"
         id="path11285" /><path
         d="m 127.44336,474.7149 -3.94922,7.41796 h -1.25391 l 4.20118,-7.69921 h -4.96875 v -1.0254 h 5.9707 z"
         style="line-height:1.1"
         id="path11287" /><path
         d="m 135.07227,474.7149 -3.94922,7.41796 h -1.25391 l 4.20117,-7.69921 h -4.96875 v -1.0254 h 5.97071 z"
         style="line-height:1.1"
         id="path11289" /><path
         d="m 142.80664,479.30279 q 0,1.33007 -0.87891,2.17382 -0.87304,0.83789 -2.14453,0.83789 -0.64453,0 -1.17187,-0.19921 -0.52735,-0.19922 -0.93164,-0.5918 -0.50391,-0.48633 -0.7793,-1.28906 -0.26953,-0.80274 -0.26953,-1.9336 0,-1.16015 0.24609,-2.05664 0.25196,-0.89648 0.79688,-1.59375 0.51562,-0.66211 1.33008,-1.03125 0.81445,-0.375 1.89843,-0.375 0.34571,0 0.58008,0.0293 0.23438,0.0293 0.47461,0.10547 v 1.11914 h -0.0586 q -0.16407,-0.0879 -0.49805,-0.16406 -0.32812,-0.082 -0.67383,-0.082 -1.25976,0 -2.00976,0.79102 -0.75,0.78516 -0.87305,2.12695 0.49219,-0.29882 0.9668,-0.45117 0.48047,-0.1582 1.10742,-0.1582 0.55664,0 0.97851,0.10547 0.42774,0.0996 0.87305,0.41015 0.51563,0.35743 0.77344,0.90235 0.26367,0.54492 0.26367,1.32422 z m -1.18945,0.0469 q 0,-0.54492 -0.16407,-0.90234 -0.1582,-0.35742 -0.52734,-0.6211 -0.26953,-0.1875 -0.59766,-0.24609 -0.32812,-0.0586 -0.68554,-0.0586 -0.49805,0 -0.92578,0.11718 -0.42774,0.11719 -0.87891,0.36328 -0.0117,0.12891 -0.0176,0.25196 -0.006,0.11719 -0.006,0.29883 0,0.92578 0.1875,1.46484 0.19336,0.5332 0.52735,0.84375 0.26953,0.25781 0.58007,0.38086 0.31641,0.11719 0.68555,0.11719 0.84961,0 1.33594,-0.51563 0.48633,-0.52148 0.48633,-1.49414 z"
         style="line-height:1.1"
         id="path11291" /><path
         d="m 150.30664,482.13286 h -5.90625 v -1.22461 q 0.61523,-0.52734 1.23047,-1.05468 0.62109,-0.52735 1.1543,-1.04883 1.125,-1.08984 1.54101,-1.72852 0.41602,-0.64453 0.41602,-1.38867 0,-0.67969 -0.45117,-1.06055 -0.44532,-0.38671 -1.24805,-0.38671 -0.5332,0 -1.1543,0.1875 -0.62109,0.1875 -1.21289,0.57421 h -0.0586 v -1.23046 q 0.41601,-0.20508 1.10742,-0.375 0.69726,-0.16993 1.34766,-0.16993 1.34179,0 2.10351,0.65039 0.76172,0.64454 0.76172,1.75196 0,0.49804 -0.12891,0.93164 -0.12304,0.42773 -0.36914,0.81445 -0.22851,0.36328 -0.53906,0.71485 -0.30469,0.35156 -0.74414,0.77929 -0.62695,0.61524 -1.29492,1.19531 -0.66797,0.57422 -1.24805,1.06641 h 4.69336 z"
         style="line-height:1.1"
         id="path11293" /><path
         d="m 162.08398,479.36138 q 0,0.60937 -0.22265,1.16602 -0.22266,0.55664 -0.60938,0.9375 -0.42187,0.41015 -1.00781,0.63281 -0.58008,0.21679 -1.34766,0.21679 -0.71484,0 -1.37695,-0.15234 -0.66211,-0.14648 -1.11914,-0.35742 v -1.23633 h 0.082 q 0.48047,0.30469 1.125,0.52149 0.64453,0.21093 1.26563,0.21093 0.41601,0 0.80273,-0.11718 0.39258,-0.11719 0.69727,-0.41016 0.25781,-0.25195 0.38672,-0.60352 0.13476,-0.35156 0.13476,-0.81445 0,-0.45117 -0.1582,-0.76172 -0.15235,-0.31055 -0.42774,-0.49805 -0.30468,-0.22265 -0.74414,-0.31054 -0.43359,-0.0937 -0.97265,-0.0937 -0.51563,0 -0.9961,0.0703 -0.47461,0.0703 -0.82031,0.14063 v -4.49415 h 5.25 v 1.0254 h -4.11914 v 2.32031 q 0.25195,-0.0234 0.51562,-0.0352 0.26368,-0.0117 0.45704,-0.0117 0.70898,0 1.24218,0.12305 0.53321,0.11719 0.97852,0.42187 0.46875,0.32227 0.72656,0.83204 0.25781,0.50976 0.25781,1.27734 z"
         style="line-height:1.1"
         id="path11295" /><path
         d="m 169.84766,479.70122 q 0,1.13086 -0.88477,1.88086 -0.87891,0.75 -2.21484,0.75 -1.41797,0 -2.26172,-0.73242 -0.83789,-0.73242 -0.83789,-1.875 0,-0.72656 0.42187,-1.3125 0.42188,-0.5918 1.18946,-0.9375 v -0.0352 q -0.70313,-0.375 -1.04297,-0.82031 -0.33399,-0.44531 -0.33399,-1.11328 0,-0.98437 0.8086,-1.64062 0.80859,-0.65625 2.05664,-0.65625 1.30664,0 2.08593,0.62695 0.7793,0.62695 0.7793,1.59375 0,0.5918 -0.36914,1.16601 -0.36914,0.56836 -1.08398,0.89063 v 0.0352 q 0.82031,0.35156 1.2539,0.86718 0.4336,0.51563 0.4336,1.3125 z m -1.38868,-4.25976 q 0,-0.62696 -0.48632,-0.9961 -0.48047,-0.375 -1.23047,-0.375 -0.73828,0 -1.21289,0.35157 -0.46875,0.35156 -0.46875,0.94922 0,0.42187 0.23437,0.73242 0.24024,0.30468 0.7207,0.54492 0.2168,0.10547 0.6211,0.27539 0.41015,0.16992 0.79687,0.28125 0.58008,-0.38672 0.80274,-0.80273 0.22265,-0.41602 0.22265,-0.96094 z m 0.18164,4.37109 q 0,-0.53906 -0.24023,-0.86133 -0.23437,-0.32812 -0.92578,-0.65625 -0.27539,-0.1289 -0.60352,-0.24023 -0.32812,-0.11133 -0.87304,-0.31055 -0.52735,0.28711 -0.84961,0.7793 -0.31641,0.49219 -0.31641,1.11328 0,0.79102 0.54492,1.30664 0.54492,0.51563 1.38282,0.51563 0.85546,0 1.36523,-0.43946 0.51562,-0.43945 0.51562,-1.20703 z"
         style="line-height:1.1"
         id="path11297" /><path
         d="m 177.54102,479.30279 q 0,1.33007 -0.87891,2.17382 -0.87305,0.83789 -2.14453,0.83789 -0.64453,0 -1.17188,-0.19921 -0.52734,-0.19922 -0.93164,-0.5918 -0.5039,-0.48633 -0.77929,-1.28906 -0.26954,-0.80274 -0.26954,-1.9336 0,-1.16015 0.2461,-2.05664 0.25195,-0.89648 0.79687,-1.59375 0.51563,-0.66211 1.33008,-1.03125 0.81445,-0.375 1.89844,-0.375 0.3457,0 0.58008,0.0293 0.23437,0.0293 0.47461,0.10547 v 1.11914 h -0.0586 q -0.16406,-0.0879 -0.49804,-0.16406 -0.32813,-0.082 -0.67383,-0.082 -1.25977,0 -2.00977,0.79102 -0.75,0.78516 -0.87305,2.12695 0.49219,-0.29882 0.9668,-0.45117 0.48047,-0.1582 1.10742,-0.1582 0.55664,0 0.97852,0.10547 0.42773,0.0996 0.87305,0.41015 0.51562,0.35743 0.77343,0.90235 0.26368,0.54492 0.26368,1.32422 z m -1.18946,0.0469 q 0,-0.54492 -0.16406,-0.90234 -0.1582,-0.35742 -0.52734,-0.6211 -0.26954,-0.1875 -0.59766,-0.24609 -0.32813,-0.0586 -0.68555,-0.0586 -0.49804,0 -0.92578,0.11718 -0.42773,0.11719 -0.8789,0.36328 -0.0117,0.12891 -0.0176,0.25196 -0.006,0.11719 -0.006,0.29883 0,0.92578 0.1875,1.46484 0.19336,0.5332 0.52734,0.84375 0.26953,0.25781 0.58008,0.38086 0.31641,0.11719 0.68555,0.11719 0.84961,0 1.33593,-0.51563 0.48633,-0.52148 0.48633,-1.49414 z"
         style="line-height:1.1"
         id="path11299" /><path
         d="m 185.0293,477.76763 q 0,2.34961 -0.73828,3.45117 -0.73243,1.0957 -2.2793,1.0957 -1.57031,0 -2.29688,-1.11328 -0.7207,-1.11328 -0.7207,-3.42187 0,-2.32617 0.73242,-3.4336 0.73242,-1.11328 2.28516,-1.11328 1.57031,0 2.29101,1.13086 0.72657,1.125 0.72657,3.4043 z m -1.54102,2.66016 q 0.20508,-0.47461 0.27539,-1.11329 0.0762,-0.64453 0.0762,-1.54687 0,-0.89063 -0.0762,-1.54688 -0.0703,-0.65625 -0.28125,-1.11328 -0.20508,-0.45117 -0.5625,-0.67968 -0.35156,-0.22852 -0.9082,-0.22852 -0.55078,0 -0.91406,0.22852 -0.35743,0.22851 -0.56836,0.6914 -0.19922,0.4336 -0.27539,1.13086 -0.0703,0.69727 -0.0703,1.5293 0,0.91406 0.0645,1.5293 0.0644,0.61523 0.27539,1.10156 0.19336,0.45703 0.54492,0.69726 0.35742,0.24024 0.94336,0.24024 0.55078,0 0.91406,-0.22852 0.36328,-0.22851 0.5625,-0.6914 z"
         style="line-height:1.1"
         id="path11301" /><path
         d="m 191.90234,477.93169 q 0.28125,0.25196 0.46289,0.63281 0.18164,0.38086 0.18164,0.98438 0,0.59766 -0.21679,1.0957 -0.2168,0.49805 -0.60938,0.86719 -0.43945,0.41016 -1.03711,0.60938 -0.59179,0.19335 -1.30078,0.19335 -0.72656,0 -1.42969,-0.17578 -0.70312,-0.16992 -1.15429,-0.375 v -1.22461 h 0.0879 q 0.49805,0.32813 1.17187,0.54493 0.67383,0.21679 1.30078,0.21679 0.36915,0 0.78516,-0.12304 0.41602,-0.12305 0.67383,-0.36329 0.26953,-0.25781 0.39844,-0.56835 0.13476,-0.31055 0.13476,-0.78516 0,-0.46875 -0.15234,-0.77344 -0.14649,-0.31055 -0.41016,-0.48633 -0.26367,-0.18164 -0.63867,-0.24609 -0.375,-0.0703 -0.80859,-0.0703 h -0.52735 v -0.97266 h 0.41016 q 0.89062,0 1.41797,-0.36914 0.5332,-0.375 0.5332,-1.08984 0,-0.31641 -0.13476,-0.55078 -0.13477,-0.24024 -0.375,-0.39258 -0.25196,-0.15235 -0.53907,-0.21094 -0.28711,-0.0586 -0.65039,-0.0586 -0.55664,0 -1.18359,0.19921 -0.62695,0.19922 -1.1836,0.5625 h -0.0586 v -1.2246 q 0.41602,-0.20508 1.10742,-0.375 0.69727,-0.17579 1.34766,-0.17579 0.63867,0 1.125,0.11719 0.48633,0.11719 0.87891,0.375 0.42187,0.28125 0.63867,0.67969 0.21679,0.39844 0.21679,0.93164 0,0.72656 -0.51562,1.27148 -0.50977,0.53907 -1.20703,0.67969 v 0.082 q 0.28125,0.0469 0.64453,0.19922 0.36328,0.14649 0.61523,0.36914 z"
         style="line-height:1.1"
         id="path11303" /><path
         d="m 199.53125,477.93169 q 0.28125,0.25196 0.46289,0.63281 0.18164,0.38086 0.18164,0.98438 0,0.59766 -0.2168,1.0957 -0.21679,0.49805 -0.60937,0.86719 -0.43945,0.41016 -1.03711,0.60938 -0.5918,0.19335 -1.30078,0.19335 -0.72656,0 -1.42969,-0.17578 -0.70312,-0.16992 -1.1543,-0.375 v -1.22461 h 0.0879 q 0.49805,0.32813 1.17188,0.54493 0.67383,0.21679 1.30078,0.21679 0.36914,0 0.78516,-0.12304 0.41601,-0.12305 0.67383,-0.36329 0.26953,-0.25781 0.39843,-0.56835 0.13477,-0.31055 0.13477,-0.78516 0,-0.46875 -0.15235,-0.77344 -0.14648,-0.31055 -0.41015,-0.48633 -0.26367,-0.18164 -0.63867,-0.24609 -0.375,-0.0703 -0.8086,-0.0703 h -0.52734 v -0.97266 h 0.41016 q 0.89062,0 1.41796,-0.36914 0.53321,-0.375 0.53321,-1.08984 0,-0.31641 -0.13477,-0.55078 -0.13476,-0.24024 -0.375,-0.39258 -0.25195,-0.15235 -0.53906,-0.21094 -0.28711,-0.0586 -0.65039,-0.0586 -0.55664,0 -1.1836,0.19921 -0.62695,0.19922 -1.18359,0.5625 h -0.0586 v -1.2246 q 0.41601,-0.20508 1.10742,-0.375 0.69726,-0.17579 1.34766,-0.17579 0.63867,0 1.125,0.11719 0.48632,0.11719 0.8789,0.375 0.42188,0.28125 0.63867,0.67969 0.2168,0.39844 0.2168,0.93164 0,0.72656 -0.51562,1.27148 -0.50977,0.53907 -1.20704,0.67969 v 0.082 q 0.28125,0.0469 0.64454,0.19922 0.36328,0.14649 0.61523,0.36914 z"
         style="line-height:1.1"
         id="path11305" /><path
         d="m 69.21875,495.33288 h -6.310547 v -8.72461 h 6.310547 v 1.6875 h -4.072266 v 1.50586 h 3.779297 v 1.6875 h -3.779297 v 2.15625 h 4.072266 z"
         style="font-weight:bold;line-height:1.1;-inkscape-font-specification:'sans-serif Bold'"
         id="path11307" /><path
         d="m 77.421875,490.66881 v 4.66407 h -2.121094 v -3.28711 q 0,-0.48047 -0.02344,-0.81446 -0.02344,-0.33984 -0.128907,-0.55078 -0.105468,-0.21094 -0.322265,-0.30469 -0.210938,-0.0996 -0.597656,-0.0996 -0.310547,0 -0.603516,0.1289 -0.292969,0.12305 -0.527344,0.26367 v 4.66407 h -2.109375 v -6.58008 h 2.109375 v 0.72656 q 0.544922,-0.42773 1.042969,-0.66797 0.498047,-0.24023 1.101562,-0.24023 0.650391,0 1.148438,0.29297 0.498047,0.28711 0.779297,0.84961 0.632812,-0.53321 1.230469,-0.8379 0.597656,-0.30468 1.171875,-0.30468 1.066406,0 1.617187,0.63867 0.556641,0.63867 0.556641,1.83984 v 4.28321 H 79.625 v -3.28711 q 0,-0.48633 -0.02344,-0.82032 -0.01758,-0.33398 -0.123046,-0.54492 -0.09961,-0.21094 -0.316407,-0.30469 -0.216797,-0.0996 -0.609375,-0.0996 -0.263672,0 -0.515625,0.0937 -0.251953,0.0879 -0.615234,0.29882 z"
         style="font-weight:bold;line-height:1.1;-inkscape-font-specification:'sans-serif Bold'"
         id="path11309" /><path
         d="m 87.669922,493.61608 v -1.37109 q -0.427735,0.0352 -0.925781,0.0996 -0.498047,0.0586 -0.75586,0.14063 -0.316406,0.0996 -0.486328,0.29297 -0.164062,0.1875 -0.164062,0.49805 0,0.20507 0.03516,0.33398 0.03516,0.12891 0.175781,0.24609 0.134766,0.11719 0.322266,0.17578 0.1875,0.0527 0.585937,0.0527 0.316406,0 0.638672,-0.12891 0.328125,-0.1289 0.574219,-0.33984 z m 0,1.01953 q -0.169922,0.12891 -0.421875,0.31055 -0.251953,0.18164 -0.47461,0.28711 -0.310546,0.14062 -0.644531,0.20507 -0.333984,0.0703 -0.732422,0.0703 -0.9375,0 -1.570312,-0.58008 -0.632813,-0.58008 -0.632813,-1.48242 0,-0.72071 0.322266,-1.17774 0.322266,-0.45703 0.914062,-0.7207 0.585938,-0.26367 1.453125,-0.375 0.867188,-0.11133 1.798829,-0.16406 v -0.0352 q 0,-0.54492 -0.445313,-0.75 -0.445312,-0.21094 -1.3125,-0.21094 -0.521484,0 -1.113281,0.1875 -0.591797,0.18164 -0.84961,0.28125 h -0.193359 v -1.58789 q 0.333984,-0.0879 1.083984,-0.20508 0.75586,-0.12304 1.511719,-0.12304 1.798828,0 2.595703,0.55664 0.802735,0.55078 0.802735,1.73437 v 4.47657 h -2.091797 z"
         style="font-weight:bold;line-height:1.1;-inkscape-font-specification:'sans-serif Bold'"
         id="path11311" /><path
         d="m 93.810547,495.33288 h -2.109375 v -6.58008 h 2.109375 z m 0.05859,-7.51758 h -2.226563 v -1.59961 h 2.226563 z"
         style="font-weight:bold;line-height:1.1;-inkscape-font-specification:'sans-serif Bold'"
         id="path11313" /><path
         d="m 97.912109,495.33288 h -2.109375 v -9.11719 h 2.109375 z"
         style="font-weight:bold;line-height:1.1;-inkscape-font-specification:'sans-serif Bold'"
         id="path11315" /><path
         d="m 102.41797,491.05553 h -2.19141 v -2.30273 h 2.19141 z m 0,4.27735 h -2.19141 v -2.30274 h 2.19141 z"
         style="font-weight:bold;line-height:1.1;-inkscape-font-specification:'sans-serif Bold'"
         id="path11317" /><path
         d="m 110.15234,495.33288 h -1.10156 v -9.11719 h 1.10156 z"
         style="line-height:1.1"
         id="path11319" /><path
         d="m 118.27344,495.33288 h -1.45313 l -2.625,-2.86524 -0.71484,0.67969 v 2.18555 h -1.10156 v -9.11719 h 1.10156 v 5.84765 l 3.18164,-3.27539 h 1.38867 l -3.04101,3.02344 z"
         style="line-height:1.1"
         id="path11321" /><path
         d="m 122.31641,492.04577 h -3.65625 v -1.06055 h 3.65625 z"
         style="line-height:1.1"
         id="path11323" /><path
         d="m 129.13672,494.92272 q -0.55078,0.26367 -1.04883,0.41016 -0.49219,0.14648 -1.04883,0.14648 -0.70898,0 -1.30078,-0.20508 -0.5918,-0.21094 -1.01367,-0.63281 -0.42773,-0.42188 -0.66211,-1.06641 -0.23437,-0.64453 -0.23437,-1.50586 0,-1.60546 0.8789,-2.51953 0.88477,-0.91406 2.33203,-0.91406 0.5625,0 1.10156,0.1582 0.54493,0.15821 0.9961,0.38672 v 1.22461 h -0.0586 q -0.5039,-0.39258 -1.04296,-0.60351 -0.53321,-0.21094 -1.04297,-0.21094 -0.9375,0 -1.48242,0.63281 -0.53907,0.62695 -0.53907,1.8457 0,1.1836 0.52735,1.82227 0.5332,0.63281 1.49414,0.63281 0.33398,0 0.67969,-0.0879 0.3457,-0.0879 0.62109,-0.22851 0.24023,-0.12305 0.45117,-0.25782 0.21094,-0.14062 0.33398,-0.24023 h 0.0586 z"
         style="line-height:1.1"
         id="path11325" /><path
         d="m 131.66211,495.33288 h -1.10156 v -9.11719 h 1.10156 z"
         style="line-height:1.1"
         id="path11327" /><path
         d="m 139.32031,492.17467 h -4.82226 q 0,0.60352 0.18164,1.05469 0.18164,0.44531 0.49804,0.73242 0.30469,0.28125 0.72071,0.42188 0.42187,0.14062 0.92578,0.14062 0.66797,0 1.3418,-0.26367 0.67968,-0.26953 0.96679,-0.52734 h 0.0586 v 1.20117 q -0.55664,0.23437 -1.13672,0.39258 -0.58008,0.1582 -1.21875,0.1582 -1.62891,0 -2.54297,-0.87891 -0.91406,-0.88476 -0.91406,-2.50781 0,-1.60547 0.87304,-2.54883 0.87891,-0.94336 2.3086,-0.94336 1.32422,0 2.03906,0.77344 0.7207,0.77344 0.7207,2.19727 z m -1.07226,-0.84375 q -0.006,-0.86718 -0.43946,-1.34179 -0.42773,-0.47461 -1.30664,-0.47461 -0.88476,0 -1.41211,0.52148 -0.52148,0.52149 -0.59179,1.29492 z"
         style="line-height:1.1"
         id="path11329" /><path
         d="m 146.07617,495.33288 h -1.0957 v -0.69727 q -0.14649,0.0996 -0.39844,0.28125 -0.24609,0.17578 -0.48047,0.28125 -0.27539,0.13477 -0.63281,0.22266 -0.35742,0.0937 -0.83789,0.0937 -0.88477,0 -1.5,-0.58594 -0.61524,-0.58594 -0.61524,-1.49414 0,-0.74414 0.31641,-1.20117 0.32227,-0.46289 0.91406,-0.72657 0.59766,-0.26367 1.43555,-0.35742 0.83789,-0.0937 1.79883,-0.14062 v -0.16992 q 0,-0.375 -0.13477,-0.6211 -0.1289,-0.24609 -0.375,-0.38672 -0.23437,-0.13476 -0.5625,-0.18164 -0.32812,-0.0469 -0.68554,-0.0469 -0.4336,0 -0.9668,0.11718 -0.5332,0.11133 -1.10156,0.32813 h -0.0586 v -1.11914 q 0.32227,-0.0879 0.93164,-0.19336 0.60938,-0.10547 1.20118,-0.10547 0.6914,0 1.20117,0.11719 0.51562,0.11133 0.89062,0.38672 0.36914,0.26953 0.5625,0.69726 0.19336,0.42774 0.19336,1.06055 z m -1.0957,-1.61133 v -1.82227 q -0.50391,0.0293 -1.18945,0.0879 -0.67969,0.0586 -1.07813,0.16992 -0.47461,0.13477 -0.76758,0.42188 -0.29297,0.28125 -0.29297,0.7793 0,0.5625 0.33985,0.84961 0.33984,0.28125 1.03711,0.28125 0.58007,0 1.06054,-0.22266 0.48047,-0.22852 0.89063,-0.54492 z"
         style="line-height:1.1"
         id="path11331" /><path
         d="m 153.66992,495.33288 h -1.10156 v -3.72657 q 0,-0.45117 -0.0527,-0.84375 -0.0527,-0.39843 -0.19335,-0.62109 -0.14649,-0.24609 -0.42188,-0.36328 -0.27539,-0.12305 -0.71484,-0.12305 -0.45118,0 -0.94336,0.22266 -0.49219,0.22265 -0.94336,0.56836 v 4.88672 h -1.10156 v -6.54493 h 1.10156 v 0.72657 q 0.51562,-0.42774 1.0664,-0.66797 0.55079,-0.24024 1.13086,-0.24024 1.06055,0 1.61719,0.63868 0.55664,0.63867 0.55664,1.83984 z"
         style="line-height:1.1"
         id="path11333" /><path
         d="m 156.97461,487.69225 h -1.24219 v -1.14258 h 1.24219 z m -0.0703,7.64063 h -1.10157 v -6.54493 h 1.10157 z"
         style="line-height:1.1"
         id="path11335" /><path
         d="m 164.55664,495.33288 h -1.10156 v -3.72657 q 0,-0.45117 -0.0527,-0.84375 -0.0527,-0.39843 -0.19336,-0.62109 -0.14648,-0.24609 -0.42187,-0.36328 -0.27539,-0.12305 -0.71484,-0.12305 -0.45118,0 -0.94336,0.22266 -0.49219,0.22265 -0.94336,0.56836 v 4.88672 h -1.10157 v -6.54493 h 1.10157 v 0.72657 q 0.51562,-0.42774 1.0664,-0.66797 0.55078,-0.24024 1.13086,-0.24024 1.06055,0 1.61719,0.63868 0.55664,0.63867 0.55664,1.83984 z"
         style="line-height:1.1"
         id="path11337" /><path
         d="m 171.98633,494.58874 q 0,1.66406 -0.75586,2.44335 -0.75586,0.7793 -2.32617,0.7793 -0.52149,0 -1.01953,-0.0762 -0.49219,-0.0703 -0.97266,-0.20508 v -1.125 h 0.0586 q 0.26953,0.10547 0.85547,0.25781 0.58594,0.15821 1.17188,0.15821 0.5625,0 0.93164,-0.13477 0.36914,-0.13476 0.57422,-0.375 0.20507,-0.22851 0.29296,-0.55078 0.0879,-0.32227 0.0879,-0.7207 v -0.59766 q -0.49805,0.39844 -0.95508,0.59766 -0.45117,0.19336 -1.1543,0.19336 -1.17187,0 -1.86328,-0.84375 -0.68555,-0.84961 -0.68555,-2.39063 0,-0.84375 0.23438,-1.45312 0.24023,-0.61524 0.65039,-1.06055 0.38086,-0.41602 0.92578,-0.64453 0.54492,-0.23438 1.08398,-0.23438 0.56836,0 0.94922,0.11719 0.38672,0.11133 0.81446,0.3457 l 0.0703,-0.28125 h 1.03125 z m -1.10156,-1.05469 v -3.56836 q -0.43946,-0.19922 -0.82032,-0.28125 -0.375,-0.0879 -0.75,-0.0879 -0.9082,0 -1.42968,0.60937 -0.52149,0.60938 -0.52149,1.76953 0,1.10157 0.38672,1.66993 0.38672,0.56836 1.2832,0.56836 0.48047,0 0.96094,-0.18165 0.48633,-0.1875 0.89063,-0.49804 z"
         style="line-height:1.1"
         id="path11339" /><path
         d="m 184.02734,491.44811 q 0,0.81445 -0.24023,1.57617 -0.23438,0.76172 -0.67383,1.38867 h -2.57812 l -0.15821,-0.67968 q -0.43359,0.35156 -0.83203,0.53906 -0.39844,0.1875 -0.91406,0.1875 -0.98438,0 -1.57617,-0.74414 -0.58594,-0.74414 -0.58594,-2.08008 0,-1.33008 0.7207,-2.12109 0.72071,-0.79102 1.72266,-0.79102 0.42773,0 0.75586,0.0996 0.32812,0.0937 0.70898,0.28711 v -0.28125 h 0.93164 v 4.93359 h 1.42383 q 0.2461,-0.43945 0.36914,-1.0957 0.12891,-0.66211 0.12891,-1.18359 0,-0.96094 -0.26953,-1.7461 -0.26367,-0.78515 -0.7793,-1.34765 -0.51562,-0.5625 -1.27734,-0.86133 -0.76172,-0.30469 -1.72852,-0.30469 -0.9375,0 -1.7168,0.33984 -0.77343,0.33985 -1.33007,0.91407 -0.5625,0.57422 -0.88477,1.37695 -0.31641,0.79688 -0.31641,1.69922 0,0.9668 0.30469,1.76953 0.30469,0.79688 0.86133,1.36523 0.58008,0.5918 1.35937,0.89063 0.7793,0.30469 1.69922,0.30469 0.50391,0 1.03711,-0.0645 0.53907,-0.0645 1.03125,-0.20507 v 0.83203 q -0.56836,0.12304 -1.06054,0.16406 -0.49219,0.0469 -1.01368,0.0469 -1.08984,0 -2.02148,-0.375 -0.93164,-0.36914 -1.59961,-1.0371 -0.67383,-0.67383 -1.04883,-1.61719 -0.375,-0.94336 -0.375,-2.08594 0,-1.08398 0.39258,-2.01562 0.39258,-0.9375 1.07227,-1.62305 0.67968,-0.68555 1.61132,-1.07813 0.93164,-0.39257 1.99219,-0.39257 1.14844,0 2.05078,0.36328 0.90235,0.36328 1.52344,1.01953 0.62109,0.65625 0.94922,1.58203 0.33398,0.91992 0.33398,2.05078 z m -3.66211,1.49414 v -3.03516 q -0.36914,-0.16992 -0.66211,-0.24023 -0.29296,-0.0762 -0.62695,-0.0762 -0.75586,0 -1.18359,0.52734 -0.42774,0.52735 -0.42774,1.5 0,0.95508 0.33985,1.44727 0.33984,0.48633 1.06054,0.48633 0.39258,0 0.78516,-0.18164 0.39258,-0.18165 0.71484,-0.42774 z"
         style="line-height:1.1"
         id="path11341" /><path
         d="m 191.73242,492.06334 q 0,1.59961 -0.82031,2.5254 -0.82031,0.92578 -2.19727,0.92578 -1.38867,0 -2.20898,-0.92578 -0.81445,-0.92579 -0.81445,-2.5254 0,-1.5996 0.81445,-2.52539 0.82031,-0.93164 2.20898,-0.93164 1.37696,0 2.19727,0.93164 0.82031,0.92579 0.82031,2.52539 z m -1.13672,0 q 0,-1.27148 -0.49804,-1.88671 -0.49805,-0.6211 -1.38282,-0.6211 -0.89648,0 -1.39453,0.6211 -0.49219,0.61523 -0.49219,1.88671 0,1.23047 0.49805,1.86915 0.49805,0.63281 1.38867,0.63281 0.87891,0 1.37696,-0.62696 0.5039,-0.63281 0.5039,-1.875 z"
         style="line-height:1.1"
         id="path11343" /><path
         d="m 198.86328,495.33288 h -1.10156 v -0.72657 q -0.55664,0.43946 -1.06641,0.67383 -0.50976,0.23438 -1.125,0.23438 -1.03125,0 -1.60547,-0.62696 -0.57422,-0.63281 -0.57422,-1.85156 v -4.24805 h 1.10157 v 3.72657 q 0,0.49804 0.0469,0.85547 0.0469,0.35156 0.19922,0.60351 0.1582,0.25781 0.41016,0.375 0.25195,0.11719 0.73242,0.11719 0.42773,0 0.93164,-0.22266 0.50977,-0.22265 0.94922,-0.56836 v -4.88672 h 1.10156 z"
         style="line-height:1.1"
         id="path11345" /><path
         d="m 204.42969,495.27428 q -0.31055,0.082 -0.67969,0.13477 -0.36328,0.0527 -0.65039,0.0527 -1.00195,0 -1.52344,-0.53906 -0.52148,-0.53906 -0.52148,-1.72852 v -3.48046 h -0.74414 v -0.92579 h 0.74414 v -1.88086 h 1.10156 v 1.88086 h 2.27344 v 0.92579 h -2.27344 v 2.98242 q 0,0.51562 0.0234,0.80859 0.0234,0.28711 0.16406,0.53906 0.12891,0.23438 0.35156,0.34571 0.22852,0.10547 0.69141,0.10547 0.26953,0 0.5625,-0.0762 0.29297,-0.082 0.42187,-0.13476 h 0.0586 z"
         style="line-height:1.1"
         id="path11347" /><path
         d="m 206.87305,495.33288 h -1.10157 v -9.11719 h 1.10157 z"
         style="line-height:1.1"
         id="path11349" /><path
         d="m 214.63086,492.06334 q 0,1.59961 -0.82031,2.5254 -0.82032,0.92578 -2.19727,0.92578 -1.38867,0 -2.20898,-0.92578 -0.81446,-0.92579 -0.81446,-2.5254 0,-1.5996 0.81446,-2.52539 0.82031,-0.93164 2.20898,-0.93164 1.37695,0 2.19727,0.93164 0.82031,0.92579 0.82031,2.52539 z m -1.13672,0 q 0,-1.27148 -0.49805,-1.88671 -0.49804,-0.6211 -1.38281,-0.6211 -0.89648,0 -1.39453,0.6211 -0.49219,0.61523 -0.49219,1.88671 0,1.23047 0.49805,1.86915 0.49805,0.63281 1.38867,0.63281 0.87891,0 1.37695,-0.62696 0.50391,-0.63281 0.50391,-1.875 z"
         style="line-height:1.1"
         id="path11351" /><path
         d="m 221.91406,492.06334 q 0,1.59961 -0.82031,2.5254 -0.82031,0.92578 -2.19727,0.92578 -1.38867,0 -2.20898,-0.92578 -0.81445,-0.92579 -0.81445,-2.5254 0,-1.5996 0.81445,-2.52539 0.82031,-0.93164 2.20898,-0.93164 1.37696,0 2.19727,0.93164 0.82031,0.92579 0.82031,2.52539 z m -1.13672,0 q 0,-1.27148 -0.49804,-1.88671 -0.49805,-0.6211 -1.38282,-0.6211 -0.89648,0 -1.39453,0.6211 -0.49218,0.61523 -0.49218,1.88671 0,1.23047 0.49804,1.86915 0.49805,0.63281 1.38867,0.63281 0.87891,0 1.37696,-0.62696 0.5039,-0.63281 0.5039,-1.875 z"
         style="line-height:1.1"
         id="path11353" /><path
         d="m 229.56055,495.33288 h -1.45313 l -2.625,-2.86524 -0.71484,0.67969 v 2.18555 h -1.10156 v -9.11719 h 1.10156 v 5.84765 l 3.18164,-3.27539 h 1.38867 l -3.04102,3.02344 z"
         style="line-height:1.1"
         id="path11355" /><path
         d="m 232.51953,495.33288 h -1.40039 v -1.66993 h 1.40039 z"
         style="line-height:1.1"
         id="path11357" /><path
         d="m 239.92578,494.92272 q -0.55078,0.26367 -1.04883,0.41016 -0.49218,0.14648 -1.04883,0.14648 -0.70898,0 -1.30078,-0.20508 -0.59179,-0.21094 -1.01367,-0.63281 -0.42773,-0.42188 -0.66211,-1.06641 -0.23437,-0.64453 -0.23437,-1.50586 0,-1.60546 0.8789,-2.51953 0.88477,-0.91406 2.33203,-0.91406 0.5625,0 1.10157,0.1582 0.54492,0.15821 0.99609,0.38672 v 1.22461 h -0.0586 q -0.50391,-0.39258 -1.04297,-0.60351 -0.5332,-0.21094 -1.04297,-0.21094 -0.9375,0 -1.48242,0.63281 -0.53906,0.62695 -0.53906,1.8457 0,1.1836 0.52734,1.82227 0.5332,0.63281 1.49414,0.63281 0.33398,0 0.67969,-0.0879 0.3457,-0.0879 0.62109,-0.22851 0.24024,-0.12305 0.45117,-0.25782 0.21094,-0.14062 0.33399,-0.24023 h 0.0586 z"
         style="line-height:1.1"
         id="path11359" /><path
         d="m 246.91602,492.06334 q 0,1.59961 -0.82032,2.5254 -0.82031,0.92578 -2.19726,0.92578 -1.38867,0 -2.20899,-0.92578 -0.81445,-0.92579 -0.81445,-2.5254 0,-1.5996 0.81445,-2.52539 0.82032,-0.93164 2.20899,-0.93164 1.37695,0 2.19726,0.93164 0.82032,0.92579 0.82032,2.52539 z m -1.13672,0 q 0,-1.27148 -0.49805,-1.88671 -0.49805,-0.6211 -1.38281,-0.6211 -0.89649,0 -1.39453,0.6211 -0.49219,0.61523 -0.49219,1.88671 0,1.23047 0.49805,1.86915 0.49804,0.63281 1.38867,0.63281 0.8789,0 1.37695,-0.62696 0.50391,-0.63281 0.50391,-1.875 z"
         style="line-height:1.1"
         id="path11361" /><path
         d="m 258.17187,495.33288 h -1.10156 v -3.72657 q 0,-0.42187 -0.041,-0.81445 -0.0352,-0.39258 -0.15821,-0.62695 -0.13476,-0.25196 -0.38672,-0.38086 -0.25195,-0.12891 -0.72656,-0.12891 -0.46289,0 -0.92578,0.23438 -0.46289,0.22851 -0.92578,0.58593 0.0176,0.13477 0.0293,0.31641 0.0117,0.17578 0.0117,0.35156 v 4.18946 h -1.10157 v -3.72657 q 0,-0.43359 -0.041,-0.82031 -0.0352,-0.39258 -0.15821,-0.62695 -0.13476,-0.25196 -0.38671,-0.375 -0.25196,-0.12891 -0.72657,-0.12891 -0.45117,0 -0.9082,0.22266 -0.45117,0.22265 -0.90234,0.56836 v 4.88672 h -1.10157 v -6.54493 h 1.10157 v 0.72657 q 0.51562,-0.42774 1.02539,-0.66797 0.51562,-0.24024 1.0957,-0.24024 0.66797,0 1.13086,0.28125 0.46875,0.28125 0.69726,0.7793 0.66797,-0.5625 1.21875,-0.80859 0.55079,-0.25196 1.17774,-0.25196 1.07812,0 1.58789,0.65625 0.51562,0.65039 0.51562,1.82227 z"
         style="line-height:1.1"
         id="path11363" /><path
         d="m 69.160156,501.49578 h -4.013672 v 1.62305 h 3.720703 v 1.6875 h -3.720703 v 3.72656 h -2.238281 v -8.72461 h 6.251953 z"
         style="font-weight:bold;line-height:1.1;-inkscape-font-specification:'sans-serif Bold'"
         id="path11365" /><path
         d="M 74.580078,506.81609 V 505.445 q -0.427734,0.0351 -0.925781,0.0996 -0.498047,0.0586 -0.75586,0.14062 -0.316406,0.0996 -0.486328,0.29297 -0.164062,0.1875 -0.164062,0.49805 0,0.20508 0.03516,0.33398 0.03516,0.12891 0.175781,0.2461 0.134766,0.11718 0.322266,0.17578 0.1875,0.0527 0.585937,0.0527 0.316407,0 0.638672,-0.1289 0.328125,-0.12891 0.574219,-0.33985 z m 0,1.01953 q -0.169922,0.12891 -0.421875,0.31055 -0.251953,0.18164 -0.474609,0.28711 -0.310547,0.14062 -0.644532,0.20508 -0.333984,0.0703 -0.732421,0.0703 -0.9375,0 -1.570313,-0.58008 -0.632812,-0.58008 -0.632812,-1.48242 0,-0.7207 0.322265,-1.17773 0.322266,-0.45704 0.914063,-0.72071 0.585937,-0.26367 1.453125,-0.375 0.867187,-0.11133 1.798828,-0.16406 v -0.0352 q 0,-0.54492 -0.445313,-0.75 -0.445312,-0.21093 -1.3125,-0.21093 -0.521484,0 -1.113281,0.1875 -0.591797,0.18164 -0.849609,0.28125 h -0.19336 v -1.58789 q 0.333985,-0.0879 1.083985,-0.20508 0.755859,-0.12305 1.511718,-0.12305 1.798829,0 2.595704,0.55664 0.802734,0.55078 0.802734,1.73438 v 4.47656 h -2.091797 z"
         style="font-weight:bold;line-height:1.1;-inkscape-font-specification:'sans-serif Bold'"
         id="path11367" /><path
         d="m 82.039062,508.70867 q -0.861328,0 -1.576171,-0.20508 -0.708985,-0.20508 -1.236329,-0.63281 -0.521484,-0.42774 -0.808593,-1.07813 -0.28711,-0.65039 -0.28711,-1.52343 0,-0.91993 0.304688,-1.58789 0.310547,-0.66797 0.861328,-1.10743 0.533203,-0.41601 1.230469,-0.60937 0.697265,-0.19336 1.447265,-0.19336 0.673828,0 1.242188,0.14648 0.568359,0.14649 1.060547,0.38086 v 1.79883 h -0.298828 q -0.123047,-0.10547 -0.298829,-0.24609 -0.169921,-0.14063 -0.421875,-0.27539 -0.240234,-0.12891 -0.527343,-0.21094 -0.28711,-0.0879 -0.667969,-0.0879 -0.84375,0 -1.300781,0.53906 -0.451172,0.5332 -0.451172,1.45313 0,0.94922 0.46289,1.4414 0.46875,0.49219 1.324219,0.49219 0.398438,0 0.714844,-0.0879 0.322266,-0.0937 0.533203,-0.2168 0.199219,-0.11718 0.351563,-0.24609 0.152343,-0.12891 0.28125,-0.25195 h 0.298828 v 1.79882 q -0.498047,0.23438 -1.042969,0.36914 -0.539063,0.14063 -1.195313,0.14063 z"
         style="font-weight:bold;line-height:1.1;-inkscape-font-specification:'sans-serif Bold'"
         id="path11369" /><path
         d="m 92.152344,505.6325 h -4.828125 q 0.04687,0.77344 0.585937,1.18359 0.544922,0.41016 1.59961,0.41016 0.667968,0 1.294921,-0.24024 0.626954,-0.24023 0.990235,-0.51562 h 0.234375 v 1.69336 q -0.714844,0.28711 -1.347656,0.41601 -0.632813,0.12891 -1.400391,0.12891 -1.980469,0 -3.035156,-0.89063 -1.054688,-0.89062 -1.054688,-2.5371 0,-1.62891 0.996094,-2.57813 1.001953,-0.95508 2.742187,-0.95508 1.605469,0 2.414063,0.81446 0.808594,0.80859 0.808594,2.33203 z m -2.097657,-1.23633 q -0.01758,-0.66211 -0.328125,-0.99609 -0.310546,-0.33399 -0.966796,-0.33399 -0.609375,0 -1.001954,0.31641 -0.392578,0.3164 -0.439453,1.01367 z"
         style="font-weight:bold;line-height:1.1;-inkscape-font-specification:'sans-serif Bold'"
         id="path11371" /><path
         d="m 100.50781,505.15203 q 0,1.55273 -0.861326,2.53125 -0.855468,0.97851 -2.138672,0.97851 -0.550781,0 -0.966796,-0.11718 Q 96.125,508.42742 95.75,508.20476 l -0.08789,0.32813 H 93.640625 V 499.4157 H 95.75 v 3.22266 q 0.486328,-0.38672 0.990234,-0.62696 0.509766,-0.24023 1.171875,-0.24023 1.248047,0 1.921875,0.90234 0.673826,0.89649 0.673826,2.47852 z m -2.173826,0.041 q 0,-0.8789 -0.298828,-1.35351 -0.298828,-0.47461 -1.066406,-0.47461 -0.298828,0 -0.615234,0.0937 -0.316407,0.0879 -0.603516,0.25781 v 3.30469 q 0.228516,0.082 0.433594,0.11133 0.205078,0.0293 0.492187,0.0293 0.837891,0 1.248047,-0.49218 0.410156,-0.49219 0.410156,-1.47657 z"
         style="font-weight:bold;line-height:1.1;-inkscape-font-specification:'sans-serif Bold'"
         id="path11373" /><path
         d="m 108.75781,505.24578 q 0,1.62305 -0.94922,2.56055 -0.94336,0.93164 -2.65429,0.93164 -1.71094,0 -2.66016,-0.93164 -0.94336,-0.9375 -0.94336,-2.56055 0,-1.63477 0.94922,-2.56641 0.95508,-0.93164 2.6543,-0.93164 1.72265,0 2.66015,0.9375 0.94336,0.9375 0.94336,2.56055 z m -2.5957,1.59961 q 0.20508,-0.25195 0.30469,-0.60352 0.10547,-0.35742 0.10547,-0.98437 0,-0.58008 -0.10547,-0.97266 -0.10547,-0.39258 -0.29297,-0.62695 -0.1875,-0.24024 -0.45117,-0.33985 -0.26368,-0.0996 -0.56836,-0.0996 -0.30469,0 -0.54492,0.082 -0.23438,0.082 -0.45118,0.32812 -0.19336,0.22852 -0.31054,0.62695 -0.11133,0.39844 -0.11133,1.00196 0,0.53906 0.0996,0.9375 0.0996,0.39258 0.29297,0.63281 0.1875,0.22852 0.44531,0.33398 0.26367,0.10547 0.59766,0.10547 0.2871,0 0.54492,-0.0937 0.26367,-0.0996 0.44531,-0.32812 z"
         style="font-weight:bold;line-height:1.1;-inkscape-font-specification:'sans-serif Bold'"
         id="path11375" /><path
         d="m 116.99609,505.24578 q 0,1.62305 -0.94921,2.56055 -0.94336,0.93164 -2.6543,0.93164 -1.71094,0 -2.66016,-0.93164 -0.94336,-0.9375 -0.94336,-2.56055 0,-1.63477 0.94922,-2.56641 0.95508,-0.93164 2.6543,-0.93164 1.72265,0 2.66015,0.9375 0.94336,0.9375 0.94336,2.56055 z m -2.5957,1.59961 q 0.20508,-0.25195 0.30469,-0.60352 0.10547,-0.35742 0.10547,-0.98437 0,-0.58008 -0.10547,-0.97266 -0.10547,-0.39258 -0.29297,-0.62695 -0.1875,-0.24024 -0.45117,-0.33985 -0.26367,-0.0996 -0.56836,-0.0996 -0.30469,0 -0.54492,0.082 -0.23438,0.082 -0.45118,0.32812 -0.19335,0.22852 -0.31054,0.62695 -0.11133,0.39844 -0.11133,1.00196 0,0.53906 0.0996,0.9375 0.0996,0.39258 0.29297,0.63281 0.1875,0.22852 0.44531,0.33398 0.26367,0.10547 0.59766,0.10547 0.28711,0 0.54492,-0.0937 0.26367,-0.0996 0.44531,-0.32812 z"
         style="font-weight:bold;line-height:1.1;-inkscape-font-specification:'sans-serif Bold'"
         id="path11377" /><path
         d="m 125.49219,508.53289 h -2.45508 l -1.8457,-2.86524 -0.57422,0.69727 v 2.16797 h -2.10938 v -9.11719 h 2.10938 v 5.44336 l 2.27344,-2.90625 h 2.43164 l -2.36719,2.83594 z"
         style="font-weight:bold;line-height:1.1;-inkscape-font-specification:'sans-serif Bold'"
         id="path11379" /><path
         d="m 129.07227,504.25554 h -2.19141 v -2.30273 h 2.19141 z m 0,4.27735 h -2.19141 v -2.30274 h 2.19141 z"
         style="font-weight:bold;line-height:1.1;-inkscape-font-specification:'sans-serif Bold'"
         id="path11381" /><path
         d="m 141.30078,508.53289 h -5.51953 v -8.72461 h 1.16016 v 7.69336 h 4.35937 z"
         style="line-height:1.1"
         id="path11383" /><path
         d="m 149.47461,508.53289 h -1.50586 l -3.45117,-3.88477 -0.86719,0.92578 v 2.95899 h -1.16016 v -8.72461 h 1.16016 v 4.55273 l 4.23633,-4.55273 h 1.40625 l -3.89649,4.10156 z"
         style="line-height:1.1"
         id="path11385" /><path
         d="m 161.73242,507.90008 q -0.32226,0.14062 -0.58594,0.26367 -0.25781,0.12304 -0.67968,0.25781 -0.35743,0.11133 -0.7793,0.1875 -0.41602,0.082 -0.91992,0.082 -0.94922,0 -1.72852,-0.26367 -0.77344,-0.26953 -1.34765,-0.83789 -0.5625,-0.55664 -0.87891,-1.41211 -0.31641,-0.86133 -0.31641,-1.99805 0,-1.07812 0.30469,-1.92773 0.30469,-0.84961 0.87891,-1.43555 0.55664,-0.56836 1.34179,-0.86719 0.79102,-0.29882 1.75196,-0.29882 0.70312,0 1.40039,0.16992 0.70312,0.16992 1.55859,0.59765 v 1.37696 h -0.0879 q -0.7207,-0.60352 -1.42969,-0.87891 -0.70898,-0.27539 -1.51757,-0.27539 -0.66211,0 -1.19532,0.2168 -0.52734,0.21093 -0.94336,0.66211 -0.40429,0.43945 -0.63281,1.11328 -0.22266,0.66797 -0.22266,1.54687 0,0.91992 0.2461,1.58203 0.25195,0.66211 0.64453,1.07813 0.41016,0.43359 0.95508,0.64453 0.55078,0.20508 1.16015,0.20508 0.83789,0 1.57032,-0.28711 0.73242,-0.28711 1.37109,-0.86133 h 0.082 z"
         style="line-height:1.1"
         id="path11387" /><path
         d="m 164.39844,508.53289 h -1.10157 v -9.11719 h 1.10157 z"
         style="line-height:1.1"
         id="path11389" /><path
         d="m 172.05664,505.37469 h -4.82227 q 0,0.60351 0.18165,1.05468 0.18164,0.44532 0.49804,0.73242 0.30469,0.28125 0.72071,0.42188 0.42187,0.14062 0.92578,0.14062 0.66797,0 1.34179,-0.26367 0.67969,-0.26953 0.9668,-0.52734 h 0.0586 v 1.20117 q -0.55664,0.23438 -1.13671,0.39258 -0.58008,0.1582 -1.21875,0.1582 -1.62891,0 -2.54297,-0.8789 -0.91407,-0.88477 -0.91407,-2.50782 0,-1.60547 0.87305,-2.54882 0.87891,-0.94336 2.30859,-0.94336 1.32422,0 2.03907,0.77343 0.7207,0.77344 0.7207,2.19727 z m -1.07227,-0.84375 q -0.006,-0.86719 -0.43945,-1.3418 -0.42773,-0.47461 -1.30664,-0.47461 -0.88476,0 -1.41211,0.52148 -0.52148,0.52149 -0.5918,1.29493 z"
         style="line-height:1.1"
         id="path11391" /><path
         d="m 178.8125,508.53289 h -1.0957 v -0.69727 q -0.14649,0.0996 -0.39844,0.28125 -0.24609,0.17578 -0.48047,0.28125 -0.27539,0.13477 -0.63281,0.22266 -0.35742,0.0937 -0.83789,0.0937 -0.88477,0 -1.5,-0.58594 -0.61524,-0.58594 -0.61524,-1.49414 0,-0.74414 0.31641,-1.20117 0.32226,-0.46289 0.91406,-0.72656 0.59766,-0.26368 1.43555,-0.35743 0.83789,-0.0937 1.79883,-0.14062 v -0.16992 q 0,-0.375 -0.13477,-0.6211 -0.12891,-0.24609 -0.375,-0.38671 -0.23437,-0.13477 -0.5625,-0.18165 -0.32812,-0.0469 -0.68555,-0.0469 -0.43359,0 -0.96679,0.11719 -0.53321,0.11133 -1.10157,0.32812 h -0.0586 v -1.11914 q 0.32227,-0.0879 0.93164,-0.19336 0.60938,-0.10547 1.20117,-0.10547 0.69141,0 1.20118,0.11719 0.51562,0.11133 0.89062,0.38672 0.36914,0.26953 0.5625,0.69727 0.19336,0.42773 0.19336,1.06054 z m -1.0957,-1.61133 v -1.82227 q -0.50391,0.0293 -1.18946,0.0879 -0.67968,0.0586 -1.07812,0.16992 -0.47461,0.13476 -0.76758,0.42187 -0.29297,0.28125 -0.29297,0.7793 0,0.5625 0.33985,0.84961 0.33984,0.28125 1.0371,0.28125 0.58008,0 1.06055,-0.22266 0.48047,-0.22851 0.89063,-0.54492 z"
         style="line-height:1.1"
         id="path11393" /><path
         d="m 186.40625,508.53289 h -1.10156 v -3.72656 q 0,-0.45118 -0.0527,-0.84375 -0.0527,-0.39844 -0.19336,-0.6211 -0.14648,-0.24609 -0.42187,-0.36328 -0.27539,-0.12305 -0.71485,-0.12305 -0.45117,0 -0.94335,0.22266 -0.49219,0.22266 -0.94336,0.56836 v 4.88672 h -1.10157 v -6.54492 h 1.10157 v 0.72656 q 0.51562,-0.42774 1.0664,-0.66797 0.55078,-0.24023 1.13086,-0.24023 1.06055,0 1.61719,0.63867 0.55664,0.63867 0.55664,1.83984 z"
         style="line-height:1.1"
         id="path11395" /><path
         d="m 189.71094,500.89226 h -1.24219 v -1.14257 h 1.24219 z m -0.0703,7.64063 h -1.10156 v -6.54492 h 1.10156 z"
         style="line-height:1.1"
         id="path11397" /><path
         d="m 197.29297,508.53289 h -1.10156 v -3.72656 q 0,-0.45118 -0.0527,-0.84375 -0.0527,-0.39844 -0.19336,-0.6211 -0.14648,-0.24609 -0.42187,-0.36328 -0.27539,-0.12305 -0.71485,-0.12305 -0.45117,0 -0.94336,0.22266 -0.49218,0.22266 -0.94336,0.56836 v 4.88672 h -1.10156 v -6.54492 h 1.10156 v 0.72656 q 0.51563,-0.42774 1.06641,-0.66797 0.55078,-0.24023 1.13086,-0.24023 1.06055,0 1.61719,0.63867 0.55664,0.63867 0.55664,1.83984 z"
         style="line-height:1.1"
         id="path11399" /><path
         d="m 204.72266,507.78875 q 0,1.66406 -0.75586,2.44336 -0.75586,0.77929 -2.32618,0.77929 -0.52148,0 -1.01953,-0.0762 -0.49218,-0.0703 -0.97265,-0.20508 v -1.125 h 0.0586 q 0.26953,0.10547 0.85547,0.25782 0.58594,0.1582 1.17187,0.1582 0.5625,0 0.93165,-0.13477 0.36914,-0.13476 0.57421,-0.375 0.20508,-0.22851 0.29297,-0.55078 0.0879,-0.32226 0.0879,-0.7207 v -0.59766 q -0.49804,0.39844 -0.95507,0.59766 -0.45118,0.19336 -1.1543,0.19336 -1.17188,0 -1.86328,-0.84375 -0.68555,-0.84961 -0.68555,-2.39063 0,-0.84375 0.23438,-1.45312 0.24023,-0.61524 0.65039,-1.06055 0.38086,-0.41601 0.92578,-0.64453 0.54492,-0.23437 1.08398,-0.23437 0.56836,0 0.94922,0.11718 0.38672,0.11133 0.81445,0.34571 l 0.0703,-0.28125 h 1.03125 z m -1.10157,-1.05469 v -3.56836 q -0.43945,-0.19922 -0.82031,-0.28125 -0.375,-0.0879 -0.75,-0.0879 -0.9082,0 -1.42969,0.60938 -0.52148,0.60937 -0.52148,1.76953 0,1.10156 0.38672,1.66992 0.38672,0.56836 1.2832,0.56836 0.48047,0 0.96094,-0.18164 0.48633,-0.1875 0.89062,-0.49805 z"
         style="line-height:1.1"
         id="path11401" /><path
         d="m 217.53711,506.04265 q 0,0.50977 -0.24024,1.00782 -0.23437,0.49804 -0.6621,0.84375 -0.46875,0.375 -1.09571,0.58593 -0.62109,0.21094 -1.5,0.21094 -0.94336,0 -1.69922,-0.17578 -0.75,-0.17578 -1.52929,-0.52148 v -1.45313 h 0.082 q 0.66211,0.55078 1.52929,0.84961 0.86719,0.29883 1.62891,0.29883 1.07813,0 1.67578,-0.4043 0.60352,-0.4043 0.60352,-1.07812 0,-0.58008 -0.28711,-0.85547 -0.28125,-0.27539 -0.86133,-0.42774 -0.43945,-0.11718 -0.95508,-0.19336 -0.50976,-0.0762 -1.08398,-0.19336 -1.16016,-0.24609 -1.72266,-0.83789 -0.55664,-0.59765 -0.55664,-1.55273 0,-1.0957 0.92578,-1.79297 0.92578,-0.70312 2.34961,-0.70312 0.91992,0 1.6875,0.17578 0.76758,0.17578 1.35938,0.43359 v 1.37109 h -0.082 q -0.49805,-0.42187 -1.3125,-0.69726 -0.8086,-0.28125 -1.65821,-0.28125 -0.93164,0 -1.5,0.38672 -0.5625,0.38672 -0.5625,0.99609 0,0.54492 0.28125,0.85547 0.28125,0.31055 0.99024,0.47461 0.375,0.082 1.0664,0.19922 0.69141,0.11719 1.17188,0.24023 0.97265,0.25782 1.46484,0.7793 0.49219,0.52148 0.49219,1.45898 z"
         style="line-height:1.1"
         id="path11403" /><path
         d="m 224.79102,505.37469 h -4.82227 q 0,0.60351 0.18164,1.05468 0.18164,0.44532 0.49805,0.73242 0.30468,0.28125 0.7207,0.42188 0.42188,0.14062 0.92578,0.14062 0.66797,0 1.3418,-0.26367 0.67969,-0.26953 0.9668,-0.52734 h 0.0586 v 1.20117 q -0.55664,0.23438 -1.13672,0.39258 -0.58008,0.1582 -1.21875,0.1582 -1.62891,0 -2.54297,-0.8789 -0.91406,-0.88477 -0.91406,-2.50782 0,-1.60547 0.87305,-2.54882 0.8789,-0.94336 2.30859,-0.94336 1.32422,0 2.03906,0.77343 0.72071,0.77344 0.72071,2.19727 z m -1.07227,-0.84375 q -0.006,-0.86719 -0.43945,-1.3418 -0.42774,-0.47461 -1.30664,-0.47461 -0.88477,0 -1.41211,0.52148 -0.52149,0.52149 -0.5918,1.29493 z"
         style="line-height:1.1"
         id="path11405" /><path
         d="m 230.54492,503.18914 h -0.0586 q -0.2461,-0.0586 -0.48047,-0.082 -0.22852,-0.0293 -0.54492,-0.0293 -0.50977,0 -0.98438,0.22852 -0.47461,0.22265 -0.91406,0.58007 v 4.64649 h -1.10156 V 501.988 h 1.10156 v 0.96679 q 0.65625,-0.52734 1.1543,-0.74414 0.5039,-0.22265 1.02539,-0.22265 0.28711,0 0.41601,0.0176 0.12891,0.0117 0.38672,0.0527 z"
         style="line-height:1.1"
         id="path11407" /><path
         d="m 237.24219,501.98797 -2.64844,6.54492 h -1.10742 l -2.63086,-6.54492 h 1.19531 l 2.02734,5.20898 2.00977,-5.20898 z"
         style="line-height:1.1"
         id="path11409" /><path
         d="M 239.86719,500.89226 H 238.625 v -1.14257 h 1.24219 z m -0.0703,7.64063 h -1.10156 v -6.54492 h 1.10156 z"
         style="line-height:1.1"
         id="path11411" /><path
         d="m 246.81641,508.12273 q -0.55079,0.26367 -1.04883,0.41016 -0.49219,0.14648 -1.04883,0.14648 -0.70898,0 -1.30078,-0.20508 -0.5918,-0.21093 -1.01367,-0.63281 -0.42774,-0.42187 -0.66211,-1.0664 -0.23438,-0.64454 -0.23438,-1.50586 0,-1.60547 0.87891,-2.51953 0.88476,-0.91407 2.33203,-0.91407 0.5625,0 1.10156,0.15821 0.54492,0.1582 0.9961,0.38671 v 1.22461 h -0.0586 q -0.5039,-0.39257 -1.04297,-0.60351 -0.5332,-0.21094 -1.04297,-0.21094 -0.9375,0 -1.48242,0.63281 -0.53906,0.62696 -0.53906,1.84571 0,1.18359 0.52734,1.82226 0.53321,0.63281 1.49414,0.63281 0.33399,0 0.67969,-0.0879 0.34571,-0.0879 0.6211,-0.22851 0.24023,-0.12305 0.45117,-0.25781 0.21094,-0.14063 0.33398,-0.24024 h 0.0586 z"
         style="line-height:1.1"
         id="path11413" /><path
         d="m 253.70703,505.37469 h -4.82226 q 0,0.60351 0.18164,1.05468 0.18164,0.44532 0.49804,0.73242 0.30469,0.28125 0.72071,0.42188 0.42187,0.14062 0.92578,0.14062 0.66797,0 1.34179,-0.26367 0.67969,-0.26953 0.9668,-0.52734 h 0.0586 v 1.20117 q -0.55664,0.23438 -1.13671,0.39258 -0.58008,0.1582 -1.21875,0.1582 -1.62891,0 -2.54297,-0.8789 -0.91407,-0.88477 -0.91407,-2.50782 0,-1.60547 0.87305,-2.54882 0.87891,-0.94336 2.3086,-0.94336 1.32421,0 2.03906,0.77343 0.7207,0.77344 0.7207,2.19727 z m -1.07226,-0.84375 q -0.006,-0.86719 -0.43946,-1.3418 -0.42773,-0.47461 -1.30664,-0.47461 -0.88476,0 -1.41211,0.52148 -0.52148,0.52149 -0.59179,1.29493 z"
         style="line-height:1.1"
         id="path11415" /><path
         d="m 260.05273,506.64617 q 0,0.89648 -0.74414,1.4707 -0.73828,0.57422 -2.02148,0.57422 -0.72656,0 -1.33594,-0.16992 -0.60351,-0.17578 -1.01367,-0.38086 v -1.23633 h 0.0586 q 0.52149,0.39258 1.16016,0.62696 0.63867,0.22851 1.22461,0.22851 0.72656,0 1.13672,-0.23437 0.41015,-0.23438 0.41015,-0.73829 0,-0.38671 -0.22265,-0.58593 -0.22266,-0.19922 -0.85547,-0.33985 -0.23438,-0.0527 -0.61524,-0.12304 -0.375,-0.0703 -0.68554,-0.15235 -0.86133,-0.22851 -1.22461,-0.66797 -0.35742,-0.44531 -0.35742,-1.08984 0,-0.4043 0.16406,-0.76172 0.16992,-0.35742 0.50976,-0.63867 0.32813,-0.27539 0.83204,-0.43359 0.50976,-0.16407 1.13671,-0.16407 0.58594,0 1.1836,0.14649 0.60351,0.14062 1.00195,0.3457 v 1.17774 h -0.0586 q -0.42188,-0.31055 -1.02539,-0.52149 -0.60352,-0.2168 -1.1836,-0.2168 -0.60351,0 -1.01953,0.23438 -0.41601,0.22851 -0.41601,0.68555 0,0.40429 0.25195,0.60937 0.24609,0.20508 0.79687,0.33399 0.30469,0.0703 0.67969,0.14062 0.38086,0.0703 0.63281,0.12891 0.76758,0.17578 1.1836,0.60351 0.41601,0.4336 0.41601,1.14844 z"
         style="line-height:1.1"
         id="path11417" /><path
         d="m 271.45508,508.53289 h -5.51953 v -8.72461 h 1.16015 v 7.69336 h 4.35938 z"
         style="line-height:1.1"
         id="path11419" /><path
         d="m 275.92578,508.47429 q -0.31055,0.082 -0.67969,0.13477 -0.36328,0.0527 -0.65039,0.0527 -1.00195,0 -1.52343,-0.53906 -0.52149,-0.53906 -0.52149,-1.72851 v -3.48047 h -0.74414 v -0.92578 h 0.74414 v -1.88086 h 1.10156 v 1.88086 h 2.27344 v 0.92578 h -2.27344 v 2.98242 q 0,0.51562 0.0234,0.80859 0.0234,0.28711 0.16406,0.53907 0.12891,0.23437 0.35157,0.3457 0.22851,0.10547 0.6914,0.10547 0.26953,0 0.5625,-0.0762 0.29297,-0.082 0.42188,-0.13477 h 0.0586 z"
         style="line-height:1.1"
         id="path11421" /><path
         d="m 282.56445,508.53289 h -1.10156 v -0.68555 q -0.47461,0.41016 -0.99023,0.63867 -0.51563,0.22852 -1.11914,0.22852 -1.17188,0 -1.86329,-0.90234 -0.68554,-0.90235 -0.68554,-2.50196 0,-0.83203 0.23437,-1.48242 0.24024,-0.65039 0.64453,-1.10742 0.39844,-0.44531 0.92578,-0.67969 0.53321,-0.23437 1.10157,-0.23437 0.51562,0 0.91406,0.11132 0.39844,0.10547 0.83789,0.33399 v -2.83594 h 1.10156 z m -1.10156,-1.61133 v -3.75586 q -0.44531,-0.19922 -0.79687,-0.27539 -0.35157,-0.0762 -0.76758,-0.0762 -0.92578,0 -1.44141,0.64453 -0.51562,0.64453 -0.51562,1.82812 0,1.16602 0.39843,1.7754 0.39844,0.60351 1.27735,0.60351 0.46875,0 0.94922,-0.20508 0.48046,-0.21093 0.89648,-0.53906 z"
         style="line-height:1.1"
         id="path11423" /></g></g></svg>
